Press code,Angle,Distance to Hull,Perimeter,Area,IsConvex,Corners,MinEnclosingRadius

Press 2,-90.0,226,411.74725472927094,12169.5,False,14,63.22130584716797

Press 7,-122.39139320663378,28059,854.9087229967117,10393.5,False,16,140.00814819335938

Press 5,64.69202123873653,36359,906.8498479127884,11081.5,False,18,102.3155746459961

Press 10,64.3589941756947,42410,1141.0579986572266,14000.0,False,16,160.37828063964844

Press 8,0.0,229,541.3868639469147,21022.0,False,16,82.75794982910156

Press 6,-162.5745639596944,36694,966.0214208364487,11751.5,False,15,121.662841796875

Press 4,-53.74616226255522,28654,987.8792854547501,11956.5,False,11,182.85797119140625

Press 9,-148.89119117145486,17498,736.8843377828598,8762.5,False,10,147.34408569335938

Ref 2,-58.15754274001481,25420,804.4852812290192,16465.0,False,6,144.9156036376953

Press 3,124.6583547055211,25102,959.4945094585419,11591.0,False,10,187.705322265625

Ref 1,134.70313333267532,34937,960.4852812290192,20053.0,False,6,169.7116241455078

